1.4 Remove Stop Words | Natural Language Processing in R
…
# Start with a standard list.
stop <- tidytext::stop_words %>%
  # Remove potentially useful words from stop list.
  filter(!word %in% c("appreciate", "room", "first")) %>%
  # Add custom stop words.
  bind_rows(tibble(word = c("hotel")))

token_2 <- anti_join(token_1, stop, by = "word")

# Most frequently removed words
token_1 %>% 
  anti_join(token_2, by = join_by(review_id, word)) %>% 
  count(word, sort = TRUE)

## # A tibble: 695 × 2
##    word       n
##    <chr>  <int>
##  1 the   195922
##  2 and   117258
##  3 a      88453
##  4 to     77843
##  5 was    64089
##  6 in     52906
##  7 we     47505
##  8 of     44723
##  9 i      43501
## 10 for    38187
## # ℹ 685 more rows
